<svg xmlns="http://www.w3.org/2000/svg" width="11.847" height="14.184">
    <path data-name="Path 1049" d="M9.692 14.184a2.156 2.156 0 0 1-2.153-2.154c0-1.118 1.9-4.455 1.978-4.6a.211.211 0 0 1 .352 0c.081.142 1.978 3.478 1.978 4.6a2.156 2.156 0 0 1-2.155 2.154zm0-6.236c-.613 1.111-1.748 3.323-1.748 4.082a1.75 1.75 0 1 0 3.5 0c-.003-.759-1.138-2.971-1.752-4.081z"/>
    <path data-name="Path 1050" d="M9.692 13.164a1.2 1.2 0 0 1-1.2-1.2 10.39 10.39 0 0 1 1.022-2.552.211.211 0 0 1 .361 0 10.39 10.39 0 0 1 1.02 2.552 1.2 1.2 0 0 1-1.203 1.2zm0-3.21a7.857 7.857 0 0 0-.8 2.007.8.8 0 1 0 1.6 0 7.811 7.811 0 0 0-.8-2.007z"/>
    <path data-name="Path 1051" d="M9.692 7.737a1 1 0 1 1 1-1 1 1 0 0 1-1 1zm0-1.589a.592.592 0 1 0 .592.592.592.592 0 0 0-.592-.592z"/>
    <path data-name="Path 1052" d="M6.09 6.364a.2.2 0 0 1-.092-.383 2.142 2.142 0 0 0 1.177-1.919v-.407a1.356 1.356 0 0 1 1.311-1.359 1.327 1.327 0 0 1 .967.38 1.448 1.448 0 0 1 .442 1.035v2.235a.203.203 0 1 1-.405 0V3.711a1.041 1.041 0 0 0-.321-.74.912.912 0 0 0-.671-.266.951.951 0 0 0-.92.954v.407a2.546 2.546 0 0 1-1.4 2.281.2.2 0 0 1-.092.021z"/>
    <path data-name="Path 1053" d="M3.807 11.89a2.156 2.156 0 0 1-2.154-2.154c0-1.118 1.9-4.455 1.978-4.6a.211.211 0 0 1 .352 0c.081.142 1.978 3.478 1.978 4.6a2.156 2.156 0 0 1-2.154 2.154zm0-6.236c-.613 1.111-1.748 3.323-1.748 4.082a1.75 1.75 0 1 0 3.5 0c0-.76-1.135-2.971-1.749-4.083z"/>
    <path data-name="Path 1054" d="M3.806 10.873a1.2 1.2 0 0 1-1.2-1.2 10.394 10.394 0 0 1 1.022-2.552.211.211 0 0 1 .361 0 10.4 10.4 0 0 1 1.023 2.552 1.2 1.2 0 0 1-1.206 1.2zm0-3.21a7.856 7.856 0 0 0-.8 2.007.8.8 0 1 0 1.6 0 7.875 7.875 0 0 0-.8-2.008z"/>
    <path data-name="Path 1055" d="M3.806 5.442a1 1 0 1 1 1-1 1 1 0 0 1-1 1zm0-1.589a.592.592 0 1 0 .592.592.592.592 0 0 0-.592-.592z"/>
    <path data-name="Path 1056" d="M.203 4.07a.2.2 0 0 1-.092-.383 2.142 2.142 0 0 0 1.177-1.919v-.407A1.357 1.357 0 0 1 2.6.003a1.321 1.321 0 0 1 .967.379 1.448 1.448 0 0 1 .442 1.036v2.233a.203.203 0 1 1-.405 0V1.417a1.041 1.041 0 0 0-.319-.744.915.915 0 0 0-.671-.27.951.951 0 0 0-.92.954v.407a2.546 2.546 0 0 1-1.4 2.281.2.2 0 0 1-.092.022z"/>
</svg>
