<svg xmlns="http://www.w3.org/2000/svg" width="14.625" height="15.625">
    <g>
        <ellipse data-name="Ellipse 46" cx="1.36" cy="1.407" rx="1.36" ry="1.407" transform="translate(5.442 12.811)"/>
        <ellipse data-name="Ellipse 47" cx="1.36" cy="1.407" rx="1.36" ry="1.407" transform="translate(9.977 12.811)"/>
        <path data-name="Path 1085" d="M10.936 7.222c.378-.281 3.689-2.8 3.689-4.944a2.288 2.288 0 0 0-3.961-1.55 2.288 2.288 0 0 0-3.961 1.55c0 2.14 3.311 4.664 3.689 4.944a.456.456 0 0 0 .545 0z"/>
        <path data-name="Path 1086" d="M3.809 10.36h9.141a.458.458 0 0 0 .447-.363l.9-4.261A15.975 15.975 0 0 1 11.668 8.2a1.676 1.676 0 0 1-2 0c-.807-.6-3.11-2.455-3.9-4.545H3.875l-.232-1.1a1.684 1.684 0 0 0-1.633-1.33L.459 1.219a.457.457 0 0 0 0 .914l1.551.007a.766.766 0 0 1 .742.6l.308 1.463 1.1 5.238h-.351a1.371 1.371 0 0 0 0 2.742h9.141a.457.457 0 0 0 0-.914H3.809a.457.457 0 1 1 0-.914z"/>
    </g>
</svg>
